…
Imputation using the mean

```r
filled_activity <- activity %>% 
        mutate(filled_steps = ifelse(is.na(steps), 
                                     round(aggregate(formula = steps ~ interval, FUN = mean)[[2]], 0),
                                     steps)) 
filled_activity
```

```
## # A tibble: 17,568 x 4
##    steps date       interval filled_steps
##    <dbl> <date>        <dbl>        <dbl>
##  1    NA 2012-10-01        0            2
##  2    NA 2012-10-01        5            0
##  3    NA 2012-10-01       10            0
##  4    NA 2012-10-01       15            0
##  5    NA 2012-10-01       20            0
##  6    NA 2012-10-01       25            2
##  7    NA 2012-10-01       30            1
##  8    NA 2012-10-01       35            1
##  9    NA 2012-10-01       40            0
## 10    NA 2012-10-01       45            1
## # … with 17,558 more rows
```
…
